<svg width="14" height="16" viewBox="0 0 14 16" fill="none" xmlns="http://www.w3.org/2000/svg">
<path d="M8.00027 1.99996C10.5869 1.99996 12.6669 4.09329 12.6669 6.66663C12.6669 8.53329 11.5803 10.1266 10.0003 10.8733V14H5.3336V12H4.66694C3.92694 12 3.3336 11.4066 3.3336 10.6666V8.66663H2.3336C2.0536 8.66663 1.8936 8.33329 2.0536 8.12663L3.3336 6.43996C3.39234 5.24216 3.90976 4.11289 4.77859 3.28626C5.64742 2.45963 6.80103 1.99903 8.00027 1.99996ZM6.2136 4.92663H7.50027C7.50694 4.72663 7.56694 4.57329 7.68694 4.46663C7.81039 4.36426 7.9666 4.30982 8.12694 4.31329C8.3336 4.31329 8.50694 4.37996 8.62694 4.49996C8.74694 4.62663 8.80027 4.79996 8.80027 4.99996C8.80027 5.21329 8.7536 5.39329 8.64694 5.54663C8.5536 5.69996 8.4136 5.83329 8.24027 5.93996C7.90027 6.16663 7.66694 6.36663 7.54027 6.54663C7.40694 6.71996 7.3336 6.99996 7.3336 7.33329H8.66694C8.66694 7.12663 8.6936 6.95996 8.7536 6.83996C8.8136 6.71329 8.92694 6.59996 9.09361 6.49329C9.3936 6.33329 9.64027 6.13996 9.8336 5.87329C10.0269 5.60663 10.1269 5.33329 10.1269 4.99996C10.1269 4.49329 9.94694 4.08663 9.58694 3.78663C9.2336 3.48663 8.74694 3.33329 8.12694 3.33329C7.54694 3.33329 7.08027 3.46663 6.72027 3.72663C6.3736 3.99996 6.20027 4.37996 6.20694 4.90663L6.2136 4.92663ZM7.3336 9.33329H8.66694V7.99996H7.3336V9.33329ZM8.00027 0.666626C4.94027 0.666626 2.40694 2.94663 2.04027 5.93329L1.00027 7.33329H0.980271L0.966938 7.35329C0.600271 7.85996 0.553604 8.52663 0.840271 9.07996C1.08027 9.53996 1.50694 9.85996 2.00027 9.95996V10.6666C2.00027 11.9 2.8536 12.9466 4.00027 13.2466V15.3333H11.3336V11.6666C13.0003 10.5533 14.0003 8.70662 14.0003 6.66663C14.0003 3.35329 11.3069 0.666626 8.00027 0.666626Z" fill="#D3D800"/>
</svg>
