<svg width="14" height="10" viewBox="0 0 14 10" fill="none" xmlns="http://www.w3.org/2000/svg">
<path d="M11.3337 1.66671C11.3337 0.931374 10.7357 0.333374 10.0003 0.333374H2.00033C1.26499 0.333374 0.666992 0.931374 0.666992 1.66671V8.33337C0.666992 9.06871 1.26499 9.66671 2.00033 9.66671H10.0003C10.7357 9.66671 11.3337 9.06871 11.3337 8.33337V6.11137L14.0003 8.33337V1.66671L11.3337 3.88871V1.66671ZM10.0017 8.33337H2.00033V1.66671H10.0003L10.001 4.99937L10.0003 5.00004L10.001 5.00071L10.0017 8.33337Z" fill="#D3D800"/>
</svg>
