<svg width="17" height="16" viewBox="0 0 17 16" fill="none" xmlns="http://www.w3.org/2000/svg">
<path d="M1.66699 1.99996H7.00033C7.00033 1.64634 7.1408 1.3072 7.39085 1.05715C7.6409 0.807102 7.98004 0.666626 8.33366 0.666626C8.68728 0.666626 9.02642 0.807102 9.27647 1.05715C9.52652 1.3072 9.66699 1.64634 9.66699 1.99996H15.0003V3.33329H14.3337V10.6666H10.5003L11.667 14.6666H10.3337L9.16699 10.6666H7.50033L6.33366 14.6666H5.00033L6.16699 10.6666H2.33366V3.33329H1.66699V1.99996ZM3.66699 3.33329V9.33329H13.0003V3.33329H3.66699Z" fill="#D3D800"/>
</svg>
